-----BEGIN PGP MESSAGE-----

hF4DApI9fuduvWASAQdAyN5W5byRU9KFiWfoKu0kj2aUAusAJL14WIcAItN4EiUw
N9UgSZMXqTNkNrUHsgQhGnb+/T0RN5Qqnkj6ael3D7n3OXiCAW791kZh9pboRgyS
0sEAAaopPyFWyScffmMQAHO3xEnnqflb9MbZlDvrY0bo56Qvbrph2F+UZIqEqqzC
/sL+v1UGpIOeKWThaIaXAsRlVeIa7gKSHGxpU9oazZLoHubOqAT9DxSamNoSWlDs
AYigogNrdxvC85mlzgYfVhneRsz6kRhfsGW9Ktzb7bIzZwi5zx3FGH9xn/7oMCUR
N7AfWnaR4zpH2IV4i4x1axOrJH3l4zlSheZBhFQkwU9ffCa9LB+K9fDusq2BqbAZ
RW2RUhBWD5H9rgTQL/+oBv2ufPJnvtlZpMAbjnHRXlr2/qyHXbvQTDXF1xADGV3I
H/vCn31lHMOJpbQnYa1GpB9E2ST9rnoQL8wOHlye9od+07rfOhU1Am+SefBDo0T/
+kCc5/DtuZxxfwesyuBLROqIEhuGLGNb07WAfX8wclhq/qSPItB5+vV/TX1w7IP1
KW4GMNlyE4TxNWtd+NAYONizCmFVgkyv6MXaWM7ozmg3tpysaG6WWRLnwbM69Nmz
kZgCuTIpgQO/EXYj3ROrjwGnSWSLS9Dfz+Y9vf8Ly51gAxPHN1AG+dqJYt1yLsBU
XiZI56E/+tA38QQfl4Uova7x0w==
=FM28
-----END PGP MESSAGE-----
